<svg width="12" height="9" viewBox="0 0 12 9" fill="none" xmlns="http://www.w3.org/2000/svg">
<path d="M4.59503 8.82668C4.48048 8.93797 4.3242 9.00006 4.16185 9.00006C3.99951 9.00006 3.84323 8.93797 3.72868 8.82668L0.26926 5.48472C-0.0897532 5.13795 -0.0897532 4.57565 0.26926 4.22953L0.702431 3.81103C1.06156 3.46426 1.64304 3.46426 2.00206 3.81103L4.16185 5.89726L9.99794 0.260136C10.3571 -0.0866306 10.9391 -0.0866306 11.2976 0.260136L11.7307 0.67864C12.0898 1.02541 12.0898 1.5876 11.7307 1.93383L4.59503 8.82668Z" fill="black"/>
</svg>
